<?xml version="1.0" standalone="no"?>
<!DOCTYPE svg PUBLIC "-//W3C//DTD SVG 1.1//EN" "http://www.w3.org/Graphics/SVG/1.1/DTD/svg11.dtd">
<svg xmlns="http://www.w3.org/2000/svg">
<metadata>Generated by Fontastic.me</metadata>
<defs>
<font id="untitled-font-3" horiz-adv-x="512">
<font-face font-family="untitled-font-3" units-per-em="512" ascent="480" descent="-32"/>
<missing-glyph horiz-adv-x="512" />

<glyph unicode="&#98;" d="M256 512c-141 0-256-115-256-256 0-141 115-256 256-256 141 0 256 115 256 256 0 141-115 256-256 256z m133-248c2 52 21 101 54 142 31-39 50-88 52-142z m106-16c-2-54-21-104-54-143-33 40-51 91-53 143z m-63 170c-37-43-58-97-60-154l-108 0 0 231c66-2 126-31 168-77z m-184 77l0-231-108 0c-2 57-23 111-60 154 42 46 102 75 168 77z m-231-231c2 54 21 103 52 142 33-41 52-90 54-142z m107-16c-2-52-20-103-53-143-32 39-52 89-54 143z m-42-156c36 44 57 99 58 156l108 0 0-231c-66 2-124 31-166 75z m182-75l0 231 108 0c1-57 22-112 58-156-42-44-100-73-166-75z"/>
<glyph unicode="&#99;" d="M0 480l0-448c0-18 14-32 32-32l448 0c18 0 32 14 32 32l0 448c0 18-14 32-32 32l-448 0c-18 0-32-14-32-32z m144-64c-9 0-16-7-16-16 0-9 7-16 16-16l224 0c9 0 16 7 16 16 0 9-7 16-16 16z m336 64c0 0 0-448 0-448 0 0-448 0-448 0 0 0 0 448 0 448 0 0 448 0 448 0z m-240-192c-9 0-16-7-16-16l0-32c0-9 7-16 16-16l32 0c9 0 16 7 16 16l0 32c0 9-7 16-16 16z m-96 0c-9 0-16-7-16-16l0-32c0-9 7-16 16-16l32 0c9 0 16 7 16 16l0 32c0 9-7 16-16 16z m192 0c-9 0-16-7-16-16l0-32c0-9 7-16 16-16l32 0c9 0 16 7 16 16l0 32c0 9-7 16-16 16z m-96-112c-9 0-16-7-16-16l0-32c0-9 7-16 16-16l32 0c9 0 16 7 16 16l0 32c0 9-7 16-16 16z m-96 0c-9 0-16-7-16-16l0-32c0-9 7-16 16-16l32 0c9 0 16 7 16 16l0 32c0 9-7 16-16 16z m192 0c-9 0-16-7-16-16l0-32c0-9 7-16 16-16l32 0c9 0 16 7 16 16l0 32c0 9-7 16-16 16z"/>
<glyph unicode="&#67;" d="M254 503c-138 0-251-112-251-250 0-138 113-250 251-250 138 0 250 112 250 250 0 138-112 250-250 250z m0-484c-130 0-235 105-235 234 0 129 105 234 235 234 129 0 234-105 234-234 0-129-105-234-234-234z m127 372l-187-73c-3-1-4-3-5-5l-73-188c-2-3-1-6 1-8 2-2 4-3 6-3 1 0 2 1 3 1l188 73c2 1 3 3 4 5l74 188c1 3 0 6-2 8-2 3-6 3-9 2z m-77-189l-167-65 66 167 167 65z m-59 251l17 0 0-41-17 0z m0-359l17 0 0-41-17 0z m-191 167l40 0 0-16-40 0z m359 0l40 0 0-16-40 0z m-159-24c8 0 16 7 16 16 0 9-8 16-16 16-9 0-17-7-17-16 0-9 8-16 17-16"/>
<glyph unicode="&#100;" d="M158 121l-87 0c-7 0-13 6-13 13l0 245c0 8 6 14 13 14l87 0c7 0 14-6 14-14l0-245c0-7-7-13-14-13z m-73 27l59 0 0 218-59 0z m-14 32l-53 0c-7 0-13 6-13 13l0 127c0 8 6 14 13 14l53 0c8 0 14-6 14-14 0-7-6-13-14-13l-39 0 0-100 39 0c8 0 14-6 14-14 0-7-6-13-14-13m373-59l-87 0c-8 0-14 6-14 13l0 245c0 8 6 14 14 14l87 0c7 0 13-6 13-14l0-245c0-7-6-13-13-13z m-74 27l60 0 0 218-60 0z m126 32l-52 0c-8 0-14 6-14 13 0 8 6 14 14 14l39 0 0 100-39 0c-8 0-14 6-14 13 0 8 6 14 14 14l52 0c8 0 14-6 14-14l0-127c0-7-6-13-14-13m-139 63l-199 0c-8 0-14 6-14 14 0 7 6 13 14 13l199 0c7 0 13-6 13-13 0-8-6-14-13-14"/>
<glyph unicode="&#104;" d="M257 21c-2 0-4 1-6 2-8 4-208 102-240 241-13 58-9 139 25 182 21 28 64 46 106 46 19 0 38-4 54-12 22-11 48-45 62-66 16 19 42 52 56 62 13 11 32 16 56 16 35 0 76-13 94-30 44-40 59-114 39-198-31-131-231-237-240-241-2-1-4-2-6-2z m-115 444c-34 0-68-15-84-36-28-34-32-108-20-159 26-113 185-202 219-219 33 18 194 113 219 220 18 74 6 138-30 171-12 11-45 23-76 23-18 0-31-4-39-10-14-11-50-56-63-73-3-4-7-6-12-5-4 0-8 2-11 6-10 17-41 62-61 73-12 6-27 9-42 9z m142-281c0 0-1 0-1 0-3 0-5 2-6 5l-26 118-17-88c-1-3-4-6-7-6-3 0-6 2-7 5l-21 65-18-29c-1-2-3-3-5-3l-149 0c-4 0-7 3-7 7 0 4 3 7 7 7l145 0 23 37c1 3 4 4 7 4 2-1 4-3 5-5l18-54 19 94c1 3 4 6 7 6l0 0c3 0 6-3 7-6l28-130 25 50c1 2 3 4 6 4l170 0c4 0 7-3 7-7 0-4-3-7-7-7l-166 0-31-64c-1-2-4-3-6-3"/>
<glyph unicode="&#116;" d="M357 328l82 0-183 184-184-184 82 0-82-82 82 0-82-82 82 0-82-83 176 0 0-74 16 0 0 74 175 0-82 83 82 0-82 82 82 0z m43-148l-82 0 82-82-288 0 82 82-82 0 82 82-82 0 82 82-82 0 144 145 144-145-82 0 82-82-82 0z"/>
<glyph unicode="&#102;" d="M237 299l17 0c3 0 6 2 6 6l0 9c0 19 47 25 47 59 0 25-24 43-56 43-38 0-57-23-57-23-2-3-3-6 0-7l10-9c2-2 4-2 7 0 6 5 16 16 37 16 18 0 28-10 28-20 0-25-44-28-44-58l0-11c0-3 2-5 5-5z m-13-57c0-10 10-18 21-18 12 0 22 8 22 18 0 11-10 19-22 19-11 0-21-8-21-19z m-192 78c0 88 72 160 160 160l128 0c88 0 160-72 160-160 0-88-72-160-160-160l-54 0c-4 0-8-2-11-5l-130-128 27-10-13 142c0 6-4 11-9 14-59 25-98 82-98 147z m75-164l13-141c1-14 18-20 27-10l130 128-11-5 54 0c106 0 192 86 192 192 0 106-86 192-192 192l-128 0c-106 0-192-86-192-192 0-78 47-147 117-177z"/>
<glyph unicode="&#117;" d="M297 163c-2 0-4 1-6 2l-53 54c-3 3-3 8 0 11 3 3 8 3 11 0l49-48c34 31 212 198 168 300-84-84-240-240-240-240-3-4-8-4-11 0-3 3-3 8 0 11 0 0 166 166 247 248 2 1 4 2 7 2 2 0 4-2 6-4 73-122-162-326-172-334-2-1-4-2-6-2z m-201-163c-4 0-9 1-13 2-30 12-45 62-46 67-1 3 0 6 2 8l176 176c3 4 8 4 11 0 3-3 3-8 0-11l-172-173c4-16 17-45 35-52 6-2 14-1 21 4 45 30 142 190 143 192 3 3 8 5 11 2 4-2 5-7 3-11-4-7-101-165-148-196-8-5-15-8-23-8z m4 52c-4 0-7 2-9 4-4 5-4 12 0 17 5 4 13 4 17 0 2-2 4-5 4-9 0-3-2-6-4-8-2-2-5-4-8-4z m0 17c-1 0-3-1-3-2-1 0-2-2-2-3 0 0 1-2 2-2 1-2 4-2 6 0 1 1 1 4 0 5-1 1-2 2-3 2z m363-62c-14 0-28 4-38 14 0 0 0 1 0 1l-101 115c-3 3-3 8 1 11 3 3 8 3 11 0l101-116c14-14 41-9 48-2 6 6 11 33-3 47l-146 130c-3 3-4 8-1 11 3 4 8 4 12 1l145-130c0 0 1 0 1 0 20-20 16-58 3-71-7-6-19-11-33-11z m-314 259c-1 0-3 0-5 1-15 1-28 8-39 19 0 0 0 0 0 0l-98 114c-3 3-3 8 1 11 3 3 8 2 11-1l98-113c8-8 18-13 29-14 9-1 18 2 24 8l53 53c6 6 9 15 8 24-1 11-6 21-14 29l-114 101c-4 3-4 8-1 11 3 3 8 4 11 1l115-101c0 0 0 0 0 0 11-11 18-25 19-39 2-15-3-28-13-38l-52-53c-9-8-20-13-33-13z m49 81c-2 0-5 0-6 2l-120 119c-3 3-3 8 0 11 4 4 9 4 12 0l119-119c3-3 3-8 0-11-1-2-4-2-5-2z m-36-36c-2 0-5 0-6 2l-119 119c-3 4-3 9 0 12 3 3 8 3 11 0l119-119c4-4 4-9 0-12-1-2-3-2-5-2z m81-48c-2 0-4 0-6 2l-40 41c-3 3-3 8 0 11 3 3 8 3 11 0l41-41c3-3 3-8 0-11-2-2-4-2-6-2z"/>
</font></defs></svg>
